,date,location,min,max
0,2022-02-16,2459115,-7.6,-0.4
1,2022-02-17,2459115,-2.0,6.8
2,2022-02-18,2459115,5.9,15.6
3,2022-02-19,2459115,-1.1,16.4
4,2022-02-20,2459115,-4.2,4.0
5,2022-02-21,2459115,-5.2,2.8
6,2022-02-22,2459115,0.5,10.6
7,2022-02-23,2459115,4.0,14.1
8,2022-02-24,2459115,2.6,18.5
9,2022-02-25,2459115,-0.9,3.1
10,2022-02-26,2459115,-4.2,4.7
11,2022-02-27,2459115,-4.0,2.8
12,2022-02-28,2459115,-1.1,8.0
13,2022-03-01,2459115,-2.6,2.2
14,2022-03-02,2459115,0.2,7.5
15,2022-03-03,2459115,4.2,10.9
16,2022-03-04,2459115,-2.9,7.2
17,2022-03-05,2459115,-5.2,3.1
18,2022-03-06,2459115,0.4,7.1
19,2022-03-07,2459115,5.8,17.5
20,2022-03-08,2459115,11.7,21.8
21,2022-03-09,2459115,4.0,10.8
22,2022-03-10,2459115,1.5,5.9
23,2022-03-11,2459115,1.5,9.1
24,2022-03-12,2459115,3.7,10.2
25,2022-03-13,2459115,-4.8,8.0
26,2022-03-14,2459115,-5.0,1.9
27,2022-03-15,2459115,-0.1,12.3
28,2022-03-16,2459115,6.1,16.5
29,2022-03-17,2459115,9.1,16.0
30,2022-03-18,2459115,7.6,12.1
31,2022-03-19,2459115,9.5,19.5
32,2022-03-20,2459115,9.3,18.8
33,2022-03-21,2459115,8.0,15.8
34,2022-03-22,2459115,6.8,16.5
35,2022-03-23,2459115,6.8,14.1
36,2022-03-24,2459115,5.0,9.1
37,2022-03-25,2459115,5.1,9.6
38,2022-03-26,2459115,6.8,14.4
39,2022-03-27,2459115,7.4,11.1
40,2022-03-28,2459115,0.2,7.5
41,2022-03-29,2459115,-4.6,-0.2
42,2022-03-30,2459115,-3.9,2.8
43,2022-03-31,2459115,-0.9,7.4
44,2022-04-01,2459115,6.4,16.9
45,2022-04-02,2459115,6.3,15.8
46,2022-04-03,2459115,3.0,12.2
47,2022-04-04,2459115,5.3,8.4
48,2022-04-05,2459115,4.1,11.9
49,2022-04-06,2459115,6.8,12.0
50,2022-04-07,2459115,7.6,11.5
51,2022-04-08,2459115,8.0,12.1
52,2022-04-09,2459115,9.4,16.6
53,2022-04-10,2459115,8.7,12.8
54,2022-04-11,2459115,5.5,9.6
55,2022-04-12,2459115,4.7,13.9
