,date,location,min,max
0,2022-02-16,2487956,7.8,14.8
1,2022-02-17,2487956,10.3,18.5
2,2022-02-18,2487956,11.1,18.6
3,2022-02-19,2487956,10.0,18.0
4,2022-02-20,2487956,10.2,19.6
5,2022-02-21,2487956,8.2,12.8
6,2022-02-22,2487956,7.1,12.8
7,2022-02-23,2487956,6.4,10.4
8,2022-02-24,2487956,5.3,11.5
9,2022-02-25,2487956,5.7,12.7
10,2022-02-26,2487956,5.7,14.5
11,2022-02-27,2487956,7.4,14.1
12,2022-02-28,2487956,9.1,17.9
13,2022-03-01,2487956,10.2,20.4
14,2022-03-02,2487956,10.6,17.9
15,2022-03-03,2487956,10.5,18.0
16,2022-03-04,2487956,10.3,13.0
17,2022-03-05,2487956,8.5,13.4
18,2022-03-06,2487956,6.8,12.8
19,2022-03-07,2487956,7.7,14.5
20,2022-03-08,2487956,7.5,18.3
21,2022-03-09,2487956,10.4,20.1
22,2022-03-10,2487956,9.7,16.1
23,2022-03-11,2487956,8.8,18.0
24,2022-03-12,2487956,9.3,18.8
25,2022-03-13,2487956,7.8,13.7
26,2022-03-14,2487956,10.2,15.0
27,2022-03-15,2487956,8.9,17.9
28,2022-03-16,2487956,10.6,16.1
29,2022-03-17,2487956,9.2,15.9
30,2022-03-18,2487956,9.8,14.1
31,2022-03-19,2487956,9.0,17.4
32,2022-03-20,2487956,9.4,12.5
33,2022-03-21,2487956,7.8,15.8
34,2022-03-22,2487956,9.2,17.5
35,2022-03-23,2487956,11.9,24.5
36,2022-03-24,2487956,9.5,14.8
37,2022-03-25,2487956,9.1,13.8
38,2022-03-26,2487956,8.3,14.6
39,2022-03-27,2487956,9.4,15.9
40,2022-03-28,2487956,10.2,15.8
41,2022-03-29,2487956,10.7,15.2
42,2022-03-30,2487956,9.9,14.3
43,2022-03-31,2487956,9.7,13.8
44,2022-04-01,2487956,9.1,15.4
45,2022-04-02,2487956,9.5,17.5
46,2022-04-03,2487956,9.6,20.6
47,2022-04-04,2487956,10.1,16.4
48,2022-04-05,2487956,10.1,16.3
49,2022-04-06,2487956,9.7,17.9
50,2022-04-07,2487956,11.5,24.6
51,2022-04-08,2487956,14.8,28.8
52,2022-04-09,2487956,11.9,20.5
53,2022-04-10,2487956,9.5,17.9
54,2022-04-11,2487956,9.2,16.7
55,2022-04-12,2487956,8.1,12.2
